{
    "title": "Nastavni predmeti.txt",
    "file": "data/Datoteke/02_Visokoskolska ustanova/Nastavni predmeti.txt",
    "content": [
        {
            "title": "Ustanova",
            "code": "ustanova",
            "description": "Oznaka ustanove",
            "type": "CHAR",
            "length": 2,
            "identifying": true,
            "notNull": true,
            "unique": false
        },
        {
            "title": "Predmet",
            "code": "predmet",
            "description": "Predmet",
            "type": "TEXT",
            "length": 6,
            "identifying": true,
            "notNull": true,
            "unique": false
        },
        {
            "title": "Naziv",
            "code": "naziv",
            "description": "Naziv predmeta",
            "type": "TEXT",
            "length": 120,
            "identifying": false,
            "notNull": true,
            "unique": false
        },
        {
            "title": "ESPB",
            "code": "espb",
            "description": "Broj ESPB bodova",
            "type": "FLOAT",
            "length": 2.0,
            "identifying": false,
            "notNull": true,
            "unique": false
        },
        {
            "title": "Izborna pozicija",
            "code": "izborna pozicija",
            "description": "Da li je predmet izborni",
            "type": "BOOL",
            "length": 1,
            "identifying": false,
            "notNull": true,
            "unique": false
        },
        {
            "title": "Bira se",
            "code": "bira se",
            "description": "Bira se predmet",
            "type": "TEXT",
            "length": 2,
            "identifying": false,
            "notNull": true,
            "unique": false
        }
    ], 
    "relations": {
        "to": [
            {
                "file": "data/Datoteke/03_Nastavno osoblje/Izvode nastavu.txt",
                "code": "Predmet",
                "foreignCode": "Predmet",
                "dbTable":"izvode_nastavu"
            },
            {
                "file": "data/Datoteke/04_Studenti/Istorija polaganja.txt",
                "code": "Predmet",
                "foreignCode": "Predmet",
                "dbTable":"istorija_polaganja"
            },
            {
                "file": "data/Datoteke/04_Studenti/Obaveze studenata.txt",
                "code": "Predmet",
                "foreignCode": "Predmet",
                "dbTable":"obaveze_studenata"
            },
            {
                "file": "data/Datoteke/02_Visokoskolska ustanova/Bazen izbornih.txt",
                "code": "Ustanova",
                "foreignCode": "Ustanova",
                "dbTable":"bazen_izbornih"
            },
            {
                "file": "data/Datoteke/02_Visokoskolska ustanova/Bazen izbornih.txt",
                "code": "Izborna pozicija",
                "foreignCode": "Izborna pozicija",
                "dbTable":"bazen_izbornih"
            },
            {
                "file": "data/Datoteke/02_Visokoskolska ustanova/Plan studijske grupe.txt",
                "code": "Nastavni predmet",
                "foreignCode": "Predmet",
                "dbTable":"plan_studijske_grupe"
            }
    ],
    "from": [
        {
            "file": "data/Datoteke/02_Visokoskolska ustanova/Visokoskolska ustanova.txt",
            "code": "Ustanova",
            "foreignCode": "Oznaka",
            "dbTable":"visokoskolska_ustanova"
        }
    ]
    }
}